[{"first":{"DUMB_CHILD":20, "FAT_CHILD": 10}, "second":4},
{"first":{"ATHLETIC_CHILD":5}, "second":6},
{"first":{"DUMB_CHILD":20, "FAT_CHILD": 5, "ATHLETIC_CHILD": 2}, "second":5},
{"first":{"DUMB_CHILD":20, "FAT_CHILD": 5, "NERD_CHILD": 2, "ATHLETIC_CHILD": 2}, "second":4}]